<?xml version="1.0" encoding="UTF-8" standalone="no"?>
<!-- Created with Inkscape (http://www.inkscape.org/) -->

<svg
   xmlns:dc="http://purl.org/dc/elements/1.1/"
   xmlns:cc="http://creativecommons.org/ns#"
   xmlns:rdf="http://www.w3.org/1999/02/22-rdf-syntax-ns#"
   xmlns:svg="http://www.w3.org/2000/svg"
   xmlns="http://www.w3.org/2000/svg"
   xmlns:xlink="http://www.w3.org/1999/xlink"
   xmlns:sodipodi="http://sodipodi.sourceforge.net/DTD/sodipodi-0.dtd"
   xmlns:inkscape="http://www.inkscape.org/namespaces/inkscape"
   width="30"
   height="30"
   id="svg2"
   version="1.1"
   inkscape:version="0.48.1 "
   sodipodi:docname="checkbox.svg"
   style="display:inline"
   inkscape:export-filename="C:\code\diabeatis\flash\src\assets\svg\checkbox_unchecked.png"
   inkscape:export-xdpi="90"
   inkscape:export-ydpi="90">
  <defs
     id="defs4">
    <linearGradient
       id="linearGradient3794">
      <stop
         style="stop-color:#a5ff9a;stop-opacity:1;"
         offset="0"
         id="stop3796" />
      <stop
         style="stop-color:#4dca00;stop-opacity:1;"
         offset="1"
         id="stop3798" />
    </linearGradient>
    <linearGradient
       id="linearGradient3837">
      <stop
         id="stop3839"
         offset="0"
         style="stop-color:#b0b0b0;stop-opacity:1;" />
      <stop
         id="stop3841"
         offset="1"
         style="stop-color:#7d7d7d;stop-opacity:1;" />
    </linearGradient>
    <linearGradient
       id="linearGradient3791">
      <stop
         id="stop3793"
         offset="0"
         style="stop-color:#ffee44;stop-opacity:1;" />
      <stop
         id="stop3795"
         offset="1"
         style="stop-color:#997744;stop-opacity:1;" />
    </linearGradient>
    <linearGradient
       id="linearGradient3755">
      <stop
         style="stop-color:#eedd22;stop-opacity:1;"
         offset="0"
         id="stop3757" />
      <stop
         style="stop-color:#886622;stop-opacity:1;"
         offset="1"
         id="stop3759" />
    </linearGradient>
    <linearGradient
       inkscape:collect="always"
       xlink:href="#linearGradient3755"
       id="linearGradient3761"
       x1="94.917557"
       y1="974.2608"
       x2="94.917557"
       y2="1028.8411"
       gradientUnits="userSpaceOnUse"
       gradientTransform="matrix(0.1715431,0,0,0.53650327,5.0273236,-489.51814)" />
    <linearGradient
       inkscape:collect="always"
       xlink:href="#linearGradient3791"
       id="linearGradient3797"
       gradientUnits="userSpaceOnUse"
       x1="94.917557"
       y1="974.2608"
       x2="94.917557"
       y2="1028.8411" />
    <linearGradient
       inkscape:collect="always"
       xlink:href="#linearGradient3791"
       id="linearGradient3827"
       gradientUnits="userSpaceOnUse"
       gradientTransform="matrix(0.99968223,0,0,1.0175062,-13.379122,-3.6496968)"
       x1="94.917557"
       y1="974.2608"
       x2="94.917557"
       y2="1028.8411" />
    <linearGradient
       inkscape:collect="always"
       xlink:href="#linearGradient3837"
       id="linearGradient3843"
       gradientUnits="userSpaceOnUse"
       gradientTransform="matrix(0.99968223,0,0,1.0175062,-13.379122,-3.6496968)"
       x1="94.917557"
       y1="974.2608"
       x2="94.917557"
       y2="1028.8411" />
    <linearGradient
       inkscape:collect="always"
       xlink:href="#linearGradient3755"
       id="linearGradient3828"
       gradientUnits="userSpaceOnUse"
       gradientTransform="matrix(0.1715431,0,0,0.53650327,5.0273236,-489.51814)"
       x1="94.917557"
       y1="974.2608"
       x2="94.917557"
       y2="1028.8411" />
    <linearGradient
       inkscape:collect="always"
       xlink:href="#linearGradient3794"
       id="linearGradient3800"
       x1="-18.625"
       y1="-11.75"
       x2="-1.625"
       y2="-11.75"
       gradientUnits="userSpaceOnUse" />
  </defs>
  <sodipodi:namedview
     id="base"
     pagecolor="#ffffff"
     bordercolor="#666666"
     borderopacity="1.0"
     inkscape:pageopacity="0.0"
     inkscape:pageshadow="2"
     inkscape:zoom="1"
     inkscape:cx="15.514365"
     inkscape:cy="-5.6974928"
     inkscape:document-units="px"
     inkscape:current-layer="layer3"
     showgrid="false"
     fit-margin-top="0"
     fit-margin-left="0"
     fit-margin-right="0"
     fit-margin-bottom="0"
     inkscape:window-width="1218"
     inkscape:window-height="778"
     inkscape:window-x="-8"
     inkscape:window-y="-8"
     inkscape:window-maximized="1"
     inkscape:snap-global="false">
    <inkscape:grid
       type="xygrid"
       id="grid3784"
       empspacing="5"
       visible="true"
       enabled="true"
       snapvisiblegridlinesonly="true" />
  </sodipodi:namedview>
  <metadata
     id="metadata7">
    <rdf:RDF>
      <cc:Work
         rdf:about="">
        <dc:format>image/svg+xml</dc:format>
        <dc:type
           rdf:resource="http://purl.org/dc/dcmitype/StillImage" />
        <dc:title></dc:title>
      </cc:Work>
    </rdf:RDF>
  </metadata>
  <g
     style="display:inline"
     transform="translate(-0.53125,-1013.7813)"
     id="g3801"
     inkscape:groupmode="layer"
     inkscape:label="Unchecked"
     sodipodi:insensitive="true">
    <path
       inkscape:connector-curvature="0"
       id="path3803"
       transform="translate(-6.46875,980.78125)"
       d="m 15.5,33.5 c -4.432,0 -8,3.568 -8,8 l 0,13 c 0,4.432 3.568,8 8,8 l 13,0 c 4.432,0 8,-3.568 8,-8 l 0,-13 c 0,-4.432 -3.568,-8 -8,-8 l -13,0 z m 3,3 7,0 c 4.431999,0 8,3.568 8,8 l 0,7 c 0,4.432 -3.568001,8 -8,8 l -7,0 c -4.431999,0 -8,-3.568 -8,-8 l 0,-7 c 0,-4.432 3.568001,-8 8,-8 z"
       style="fill:url(#linearGradient3828);fill-opacity:1;fill-rule:evenodd;stroke:#444411;stroke-width:1;stroke-linecap:butt;stroke-linejoin:miter;stroke-miterlimit:4;stroke-opacity:1;stroke-dasharray:none" />
  </g>
  <g
     inkscape:label="Checked"
     inkscape:groupmode="layer"
     id="layer1"
     transform="translate(-0.53125,-1013.7813)"
     style="display:none"
     sodipodi:insensitive="true">
    <path
       style="fill:url(#linearGradient3761);fill-opacity:1;fill-rule:evenodd;stroke:#444411;stroke-width:1;stroke-linecap:butt;stroke-linejoin:miter;stroke-miterlimit:4;stroke-opacity:1;stroke-dasharray:none"
       d="m 15.5,33.5 c -4.432,0 -8,3.568 -8,8 l 0,13 c 0,4.432 3.568,8 8,8 l 13,0 c 4.432,0 8,-3.568 8,-8 l 0,-13 c 0,-4.432 -3.568,-8 -8,-8 l -13,0 z m 3,3 7,0 c 4.431999,0 8,3.568 8,8 l 0,7 c 0,4.432 -3.568001,8 -8,8 l -7,0 c -4.431999,0 -8,-3.568 -8,-8 l 0,-7 c 0,-4.432 3.568001,-8 8,-8 z"
       transform="translate(-6.46875,980.78125)"
       id="rect2985"
       inkscape:connector-curvature="0" />
    <path
       sodipodi:nodetypes="ccccc"
       inkscape:connector-curvature="0"
       id="path3795"
       d="M 37.653437,29.694913 23.157746,57.802408 10.960156,46.135146 20.847087,48.872583 z"
       style="fill:#37e100;fill-opacity:1;stroke:#000000;stroke-opacity:1;display:inline"
       transform="translate(-6.46875,980.78125)" />
  </g>
  <g
     inkscape:groupmode="layer"
     id="layer2"
     inkscape:label="cartoony_tick"
     style="display:none"
     transform="translate(0,-4)">
    <path
       transform="translate(17.147339,0)"
       style="fill:#30ff0b;fill-opacity:1;stroke:#000000;stroke-width:1;stroke-linejoin:round;stroke-miterlimit:4;stroke-opacity:1"
       d="M -2.2135712,32.791339 -15.38998,21.464466 -11.836314,15.792 -3.0897285,22.48074 5.564605,2.6817506 l 7.33237,8.8676104 z"
       id="path3007"
       inkscape:connector-curvature="0"
       sodipodi:nodetypes="ccccccc" />
  </g>
  <g
     inkscape:groupmode="layer"
     id="layer3"
     inkscape:label="simple tick"
     style="display:inline"
     transform="translate(0,-4)"
     sodipodi:insensitive="true">
    <path
       transform="translate(25.125,30.75)"
       style="fill:url(#linearGradient3800);fill-opacity:1;stroke:#000000;stroke-width:1;stroke-linejoin:round;stroke-miterlimit:4;stroke-opacity:1"
       d="m -15.125,-3.75 -3,-3 5,-5 -5,-5 3,-3 5,5 5,-5 3,3 -5,5 5,5 -3,3 -5,-5 z"
       id="path3781"
       inkscape:connector-curvature="0"
       sodipodi:nodetypes="ccccccccccccc" />
  </g>
</svg>
