<?xml version="1.0" encoding="UTF-8" standalone="no"?>
<!-- Created with Inkscape (http://www.inkscape.org/) -->

<svg
   xmlns:dc="http://purl.org/dc/elements/1.1/"
   xmlns:cc="http://creativecommons.org/ns#"
   xmlns:rdf="http://www.w3.org/1999/02/22-rdf-syntax-ns#"
   xmlns:svg="http://www.w3.org/2000/svg"
   xmlns="http://www.w3.org/2000/svg"
   xmlns:xlink="http://www.w3.org/1999/xlink"
   xmlns:sodipodi="http://sodipodi.sourceforge.net/DTD/sodipodi-0.dtd"
   xmlns:inkscape="http://www.inkscape.org/namespaces/inkscape"
   width="120"
   height="149.99998"
   id="svg2"
   version="1.1"
   inkscape:version="0.48.2 r9819"
   sodipodi:docname="game_skin.svg"
   style="display:inline"
   inkscape:export-filename="G:\code\diabeatis\flash\src\assets\game_skin.png"
   inkscape:export-xdpi="90"
   inkscape:export-ydpi="90">
  <defs
     id="defs4">
    <linearGradient
       id="linearGradient3864">
      <stop
         style="stop-color:#444411;stop-opacity:1;"
         offset="0"
         id="stop3866" />
      <stop
         style="stop-color:#a6a67c;stop-opacity:1;"
         offset="1"
         id="stop3868" />
    </linearGradient>
    <linearGradient
       id="linearGradient3858">
      <stop
         id="stop3860"
         offset="0"
         style="stop-color:#bababa;stop-opacity:1;" />
      <stop
         id="stop3862"
         offset="1"
         style="stop-color:#6c6c6c;stop-opacity:1;" />
    </linearGradient>
    <linearGradient
       id="linearGradient3859">
      <stop
         style="stop-color:#ddd9af;stop-opacity:1;"
         offset="0"
         id="stop3861" />
      <stop
         style="stop-color:#d9cbad;stop-opacity:1;"
         offset="1"
         id="stop3863" />
    </linearGradient>
    <linearGradient
       id="linearGradient3851">
      <stop
         style="stop-color:#b5b5b5;stop-opacity:1;"
         offset="0"
         id="stop3853" />
      <stop
         style="stop-color:#dfdfdf;stop-opacity:1;"
         offset="1"
         id="stop3855" />
    </linearGradient>
    <linearGradient
       id="linearGradient3794">
      <stop
         style="stop-color:#34ed1d;stop-opacity:1;"
         offset="0"
         id="stop3796" />
      <stop
         style="stop-color:#4dca00;stop-opacity:1;"
         offset="1"
         id="stop3798" />
    </linearGradient>
    <linearGradient
       id="linearGradient3837">
      <stop
         id="stop3839"
         offset="0"
         style="stop-color:#b0b0b0;stop-opacity:1;" />
      <stop
         id="stop3841"
         offset="1"
         style="stop-color:#7d7d7d;stop-opacity:1;" />
    </linearGradient>
    <linearGradient
       id="linearGradient3791">
      <stop
         id="stop3793"
         offset="0"
         style="stop-color:#fff59f;stop-opacity:1;" />
      <stop
         id="stop3795"
         offset="1"
         style="stop-color:#b5a15a;stop-opacity:1;" />
    </linearGradient>
    <linearGradient
       id="linearGradient3755">
      <stop
         style="stop-color:#f5eb7f;stop-opacity:1;"
         offset="0"
         id="stop3757" />
      <stop
         style="stop-color:#ad942b;stop-opacity:1;"
         offset="1"
         id="stop3759" />
    </linearGradient>
    <linearGradient
       inkscape:collect="always"
       xlink:href="#linearGradient3791"
       id="linearGradient3797"
       gradientUnits="userSpaceOnUse"
       x1="94.917557"
       y1="974.2608"
       x2="94.917557"
       y2="1028.8411" />
    <linearGradient
       inkscape:collect="always"
       xlink:href="#linearGradient3791"
       id="linearGradient3827"
       gradientUnits="userSpaceOnUse"
       gradientTransform="matrix(0.99968223,0,0,1.0175062,-13.379122,-3.6496968)"
       x1="94.917557"
       y1="974.2608"
       x2="94.917557"
       y2="1028.8411" />
    <linearGradient
       inkscape:collect="always"
       xlink:href="#linearGradient3837"
       id="linearGradient3843"
       gradientUnits="userSpaceOnUse"
       gradientTransform="matrix(0.99968223,0,0,1.0175062,-13.379122,-3.6496968)"
       x1="94.917557"
       y1="974.2608"
       x2="94.917557"
       y2="1028.8411" />
    <linearGradient
       inkscape:collect="always"
       xlink:href="#linearGradient3791"
       id="linearGradient3946"
       gradientUnits="userSpaceOnUse"
       gradientTransform="matrix(0.1715431,0,0,0.53650327,48.558574,481.26311)"
       x1="94.917557"
       y1="974.2608"
       x2="94.917557"
       y2="1028.8411" />
    <linearGradient
       inkscape:collect="always"
       xlink:href="#linearGradient3755"
       id="linearGradient3948"
       gradientUnits="userSpaceOnUse"
       gradientTransform="matrix(0.1715431,0,0,0.53650327,-1.441426,461.26311)"
       x1="94.917557"
       y1="974.2608"
       x2="94.917557"
       y2="1028.8411" />
    <linearGradient
       inkscape:collect="always"
       xlink:href="#linearGradient3791"
       id="linearGradient3950"
       gradientUnits="userSpaceOnUse"
       gradientTransform="matrix(0.1715431,0,0,0.53650327,28.558574,461.26311)"
       x1="94.917557"
       y1="974.2608"
       x2="94.917557"
       y2="1028.8411" />
    <linearGradient
       inkscape:collect="always"
       xlink:href="#linearGradient3794"
       id="linearGradient3954"
       gradientUnits="userSpaceOnUse"
       gradientTransform="translate(75.65625,1030.5313)"
       x1="-18.625"
       y1="-11.75"
       x2="-1.625"
       y2="-11.75" />
    <linearGradient
       inkscape:collect="always"
       xlink:href="#linearGradient3794"
       id="linearGradient3956"
       gradientUnits="userSpaceOnUse"
       gradientTransform="matrix(0.75,0,0,0.75,113.125,1027.5938)"
       x1="-18.625"
       y1="-11.75"
       x2="-1.625"
       y2="-11.75" />
    <linearGradient
       inkscape:collect="always"
       xlink:href="#linearGradient3794"
       id="linearGradient3958"
       gradientUnits="userSpaceOnUse"
       gradientTransform="matrix(0.59375002,0,0,0.59375002,81.54297,1005.7579)"
       x1="-18.625"
       y1="-11.75"
       x2="-1.625"
       y2="-11.75" />
    <linearGradient
       y2="1028.8411"
       x2="94.917557"
       y1="974.2608"
       x1="94.917557"
       gradientTransform="matrix(0.99968223,0,0,1.0175062,-13.379122,-3.6496968)"
       gradientUnits="userSpaceOnUse"
       id="linearGradient3843-3"
       xlink:href="#linearGradient3837-7"
       inkscape:collect="always" />
    <linearGradient
       y2="1028.8411"
       x2="94.917557"
       y1="974.2608"
       x1="94.917557"
       gradientTransform="matrix(0.99968223,0,0,1.0175062,-13.379122,-3.6496968)"
       gradientUnits="userSpaceOnUse"
       id="linearGradient3827-0"
       xlink:href="#linearGradient3791-2"
       inkscape:collect="always" />
    <linearGradient
       y2="1028.8411"
       x2="94.917557"
       y1="974.2608"
       x1="94.917557"
       gradientUnits="userSpaceOnUse"
       id="linearGradient3797-6"
       xlink:href="#linearGradient3791-2"
       inkscape:collect="always" />
    <linearGradient
       id="linearGradient3755-4">
      <stop
         id="stop3757-9"
         offset="0"
         style="stop-color:#faf5bb;stop-opacity:1;" />
      <stop
         id="stop3759-4"
         offset="1"
         style="stop-color:#e0c182;stop-opacity:1;" />
    </linearGradient>
    <linearGradient
       id="linearGradient3791-2">
      <stop
         style="stop-color:#ffee44;stop-opacity:1;"
         offset="0"
         id="stop3793-6" />
      <stop
         style="stop-color:#997744;stop-opacity:1;"
         offset="1"
         id="stop3795-0" />
    </linearGradient>
    <linearGradient
       id="linearGradient3837-7">
      <stop
         style="stop-color:#b0b0b0;stop-opacity:1;"
         offset="0"
         id="stop3839-7" />
      <stop
         style="stop-color:#7d7d7d;stop-opacity:1;"
         offset="1"
         id="stop3841-1" />
    </linearGradient>
    <linearGradient
       inkscape:collect="always"
       xlink:href="#linearGradient3791"
       id="linearGradient4037"
       gradientUnits="userSpaceOnUse"
       gradientTransform="matrix(0.1715431,0,0,0.53650325,28.558577,371.26318)"
       x1="94.917557"
       y1="974.2608"
       x2="94.917557"
       y2="1028.8411" />
    <linearGradient
       inkscape:collect="always"
       xlink:href="#linearGradient3755-4"
       id="linearGradient4051"
       gradientUnits="userSpaceOnUse"
       gradientTransform="matrix(0.1715431,0,0,0.53650325,-1.441423,431.26318)"
       x1="94.917557"
       y1="974.2608"
       x2="94.917557"
       y2="1028.8411" />
    <linearGradient
       inkscape:collect="always"
       xlink:href="#linearGradient3791"
       id="linearGradient4053"
       gradientUnits="userSpaceOnUse"
       gradientTransform="matrix(0.1715431,0,0,0.53650325,28.558577,431.26318)"
       x1="94.917557"
       y1="974.2608"
       x2="94.917557"
       y2="1028.8411" />
    <linearGradient
       inkscape:collect="always"
       xlink:href="#linearGradient3755"
       id="linearGradient4055"
       gradientUnits="userSpaceOnUse"
       gradientTransform="matrix(0.1715431,0,0,0.53650325,-1.441423,371.26318)"
       x1="94.917557"
       y1="974.2608"
       x2="94.917557"
       y2="1028.8411" />
    <linearGradient
       inkscape:collect="always"
       xlink:href="#linearGradient3794"
       id="linearGradient3164"
       gradientUnits="userSpaceOnUse"
       gradientTransform="matrix(0.75,0,0,0.75,83.125,1037.5938)"
       x1="-18.625"
       y1="-11.75"
       x2="-1.625"
       y2="-11.75" />
    <linearGradient
       inkscape:collect="always"
       xlink:href="#linearGradient3755-4-3"
       id="linearGradient4051-1"
       gradientUnits="userSpaceOnUse"
       gradientTransform="matrix(0.1715431,0,0,0.53650325,-1.441423,431.26318)"
       x1="94.917557"
       y1="974.2608"
       x2="94.917557"
       y2="1028.8411" />
    <linearGradient
       id="linearGradient3755-4-3">
      <stop
         id="stop3757-9-8"
         offset="0"
         style="stop-color:#faf5bb;stop-opacity:1;" />
      <stop
         id="stop3759-4-9"
         offset="1"
         style="stop-color:#e0c182;stop-opacity:1;" />
    </linearGradient>
    <linearGradient
       y2="1028.8411"
       x2="94.917557"
       y1="974.2608"
       x1="94.917557"
       gradientTransform="matrix(0.1715431,0,0,0.53650325,-0.5211128,432.12787)"
       gradientUnits="userSpaceOnUse"
       id="linearGradient3182"
       xlink:href="#linearGradient3755-4-3"
       inkscape:collect="always" />
    <linearGradient
       inkscape:collect="always"
       xlink:href="#linearGradient3755-4"
       id="linearGradient3203"
       gradientUnits="userSpaceOnUse"
       gradientTransform="matrix(0.1715431,0,0,0.26506099,-1.441423,695.88269)"
       x1="94.917557"
       y1="974.2608"
       x2="94.917557"
       y2="1028.8411" />
    <linearGradient
       inkscape:collect="always"
       xlink:href="#linearGradient3755-4"
       id="linearGradient3205"
       gradientUnits="userSpaceOnUse"
       gradientTransform="matrix(0.1715431,0,0,0.53650325,-1.972673,-492.51813)"
       x1="94.917557"
       y1="974.2608"
       x2="94.917557"
       y2="1028.8411" />
    <linearGradient
       inkscape:collect="always"
       xlink:href="#linearGradient3755-4"
       id="linearGradient3209"
       gradientUnits="userSpaceOnUse"
       gradientTransform="matrix(0.1715431,0,0,0.53650325,-1.972673,-492.51813)"
       x1="94.917557"
       y1="974.2608"
       x2="94.917557"
       y2="1028.8411" />
    <linearGradient
       inkscape:collect="always"
       xlink:href="#linearGradient3791"
       id="linearGradient3214"
       gradientUnits="userSpaceOnUse"
       gradientTransform="matrix(0.1715431,0,0,0.2912241,28.558577,683.63544)"
       x1="94.917557"
       y1="974.2608"
       x2="94.917557"
       y2="1028.8411" />
    <linearGradient
       inkscape:collect="always"
       xlink:href="#linearGradient3791"
       id="linearGradient3218"
       gradientUnits="userSpaceOnUse"
       gradientTransform="matrix(0.1715431,0,0,0.53650325,28.027327,-492.51813)"
       x1="94.917557"
       y1="974.2608"
       x2="94.917557"
       y2="1028.8411" />
    <linearGradient
       inkscape:collect="always"
       xlink:href="#linearGradient3755-4"
       id="linearGradient3221"
       gradientUnits="userSpaceOnUse"
       gradientTransform="matrix(0.1715431,0,0,0.53650325,-1.972673,-492.51813)"
       x1="92.856537"
       y1="1007.5501"
       x2="95.948067"
       y2="945.11597" />
    <linearGradient
       inkscape:collect="always"
       xlink:href="#linearGradient3794-0"
       id="linearGradient3864-4"
       gradientUnits="userSpaceOnUse"
       gradientTransform="translate(25.65625,1040.5313)"
       x1="-18.625"
       y1="-11.75"
       x2="-1.625"
       y2="-11.75" />
    <linearGradient
       id="linearGradient3794-0">
      <stop
         style="stop-color:#7be76d;stop-opacity:1;"
         offset="0"
         id="stop3796-9" />
      <stop
         style="stop-color:#68ff0b;stop-opacity:1;"
         offset="1"
         id="stop3798-4" />
    </linearGradient>
    <linearGradient
       y2="5.6254697"
       x2="83.865128"
       y1="16.585625"
       x1="61.218033"
       gradientTransform="translate(-64.6273,1031.6601)"
       gradientUnits="userSpaceOnUse"
       id="linearGradient3960"
       xlink:href="#linearGradient3794-04"
       inkscape:collect="always" />
    <linearGradient
       id="linearGradient3794-04">
      <stop
         style="stop-color:#a5ff9a;stop-opacity:1;"
         offset="0"
         id="stop3796-94" />
      <stop
         style="stop-color:#4dca00;stop-opacity:1;"
         offset="1"
         id="stop3798-6" />
    </linearGradient>
    <linearGradient
       y2="5.6254697"
       x2="83.865128"
       y1="16.585625"
       x1="61.218033"
       gradientTransform="translate(-62.6273,1031.6601)"
       gradientUnits="userSpaceOnUse"
       id="linearGradient3960-0"
       xlink:href="#linearGradient3794-3"
       inkscape:collect="always" />
    <linearGradient
       id="linearGradient3794-3">
      <stop
         style="stop-color:#a5ff9a;stop-opacity:1;"
         offset="0"
         id="stop3796-6" />
      <stop
         style="stop-color:#4dca00;stop-opacity:1;"
         offset="1"
         id="stop3798-2" />
    </linearGradient>
    <linearGradient
       inkscape:collect="always"
       xlink:href="#linearGradient3755"
       id="linearGradient4102"
       gradientUnits="userSpaceOnUse"
       gradientTransform="matrix(0.1715431,0,0,0.53650327,-1.441426,491.26311)"
       x1="94.917557"
       y1="974.2608"
       x2="94.917557"
       y2="1028.8411" />
    <linearGradient
       inkscape:collect="always"
       xlink:href="#linearGradient3794"
       id="linearGradient4104"
       gradientUnits="userSpaceOnUse"
       gradientTransform="translate(25.65625,1040.5313)"
       x1="-18.625"
       y1="-11.75"
       x2="-1.625"
       y2="-11.75" />
    <linearGradient
       inkscape:collect="always"
       xlink:href="#linearGradient3755-9"
       id="linearGradient4055-2"
       gradientUnits="userSpaceOnUse"
       gradientTransform="matrix(0.1715431,0,0,0.53650325,-1.441423,371.26318)"
       x1="94.917557"
       y1="974.2608"
       x2="94.917557"
       y2="1028.8411" />
    <linearGradient
       id="linearGradient3755-9">
      <stop
         style="stop-color:#eedd22;stop-opacity:1;"
         offset="0"
         id="stop3757-98" />
      <stop
         style="stop-color:#886622;stop-opacity:1;"
         offset="1"
         id="stop3759-3" />
    </linearGradient>
    <linearGradient
       inkscape:collect="always"
       xlink:href="#linearGradient3794"
       id="linearGradient4156"
       gradientUnits="userSpaceOnUse"
       gradientTransform="matrix(0.1715431,0,0,0.53650325,-1.441423,401.26318)"
       x1="94.917557"
       y1="974.2608"
       x2="94.917557"
       y2="1028.8411" />
    <linearGradient
       inkscape:collect="always"
       xlink:href="#linearGradient3794-0"
       id="linearGradient4158"
       gradientUnits="userSpaceOnUse"
       gradientTransform="matrix(0.1715431,0,0,0.53650325,28.558577,401.26318)"
       x1="94.917557"
       y1="974.2608"
       x2="94.917557"
       y2="1028.8411" />
    <linearGradient
       inkscape:collect="always"
       xlink:href="#linearGradient3859"
       id="linearGradient3857"
       x1="60.53125"
       y1="968.78131"
       x2="90.53125"
       y2="968.78131"
       gradientUnits="userSpaceOnUse" />
    <linearGradient
       inkscape:collect="always"
       xlink:href="#linearGradient3858"
       id="linearGradient3087"
       gradientUnits="userSpaceOnUse"
       gradientTransform="matrix(0.1715431,0,0,0.53650325,88.558577,371.26318)"
       x1="94.917557"
       y1="974.2608"
       x2="94.917557"
       y2="1028.8411" />
  </defs>
  <sodipodi:namedview
     id="base"
     pagecolor="#ffffff"
     bordercolor="#666666"
     borderopacity="1.0"
     inkscape:pageopacity="0.0"
     inkscape:pageshadow="2"
     inkscape:zoom="8"
     inkscape:cx="51.854772"
     inkscape:cy="85.291618"
     inkscape:document-units="px"
     inkscape:current-layer="g3801"
     showgrid="false"
     fit-margin-top="0"
     fit-margin-left="0"
     fit-margin-right="0"
     fit-margin-bottom="0"
     inkscape:window-width="1218"
     inkscape:window-height="1001"
     inkscape:window-x="-8"
     inkscape:window-y="-8"
     inkscape:window-maximized="1"
     inkscape:snap-global="false">
    <inkscape:grid
       type="xygrid"
       id="grid3784"
       empspacing="5"
       visible="true"
       enabled="true"
       snapvisiblegridlinesonly="true" />
  </sodipodi:namedview>
  <metadata
     id="metadata7">
    <rdf:RDF>
      <cc:Work
         rdf:about="">
        <dc:format>image/svg+xml</dc:format>
        <dc:type
           rdf:resource="http://purl.org/dc/dcmitype/StillImage" />
        <dc:title></dc:title>
      </cc:Work>
    </rdf:RDF>
  </metadata>
  <g
     style="display:inline"
     transform="translate(-0.53125,-893.78131)"
     id="g3801"
     inkscape:groupmode="layer"
     inkscape:label="main">
    <path
       style="fill:#a78e11;fill-opacity:1;fill-rule:evenodd;stroke:#444411;stroke-width:1;stroke-linecap:butt;stroke-linejoin:miter;stroke-miterlimit:4;stroke-opacity:1;stroke-dasharray:none"
       d="m 69.03125,1014.2813 c -4.432,0 -8,3.568 -8,8 l 0,13 c 0,4.432 3.568,8 8,8 l 13,0 c 4.432,0 8,-3.568 8,-8 l 0,-13 c 0,-4.432 -3.568,-8 -8,-8 l -13,0 z m 3,3 7,0 c 4.432,0 8,3.568 8,8 l 0,7 c 0,4.432 -3.568,8 -8,8 l -7,0 c -4.432,0 -8,-3.568 -8,-8 l 0,-7 c 0,-4.432 3.568,-8 8,-8 z"
       id="path3928"
       inkscape:connector-curvature="0" />
    <path
       inkscape:connector-curvature="0"
       id="path3930"
       d="m 9.03125,984.2813 c -4.432,0 -8,3.568 -8,8 l 0,13 c 0,4.432 3.568,8 8,8 l 13,0 c 4.432,0 8,-3.568 8,-8 l 0,-13 c 0,-4.432 -3.568,-8 -8,-8 l -13,0 z m 3,3 7,0 c 4.431999,0 8,3.568 8,8 l 0,7 c 0,4.432 -3.568001,8 -8,8 l -7,0 c -4.431999,0 -8,-3.568 -8,-8 l 0,-7 c 0,-4.432 3.568001,-8 8,-8 z"
       style="fill:url(#linearGradient3948);fill-opacity:1;fill-rule:evenodd;stroke:#444411;stroke-width:1;stroke-linecap:butt;stroke-linejoin:miter;stroke-miterlimit:4;stroke-opacity:1;stroke-dasharray:none" />
    <path
       style="fill:url(#linearGradient3950);fill-opacity:1;fill-rule:evenodd;stroke:#444411;stroke-width:1;stroke-linecap:butt;stroke-linejoin:miter;stroke-miterlimit:4;stroke-opacity:1;stroke-dasharray:none"
       d="m 39.03125,984.2813 c -4.432,0 -8,3.568 -8,8 l 0,13 c 0,4.432 3.568,8 8,8 l 13,0 c 4.432,0 8,-3.568 8,-8 l 0,-13 c 0,-4.432 -3.568,-8 -8,-8 l -13,0 z m 3,3 7,0 c 4.431999,0 8,3.568 8,8 l 0,7 c 0,4.432 -3.568001,8 -8,8 l -7,0 c -4.431999,0 -8,-3.568 -8,-8 l 0,-7 c 0,-4.432 3.568001,-8 8,-8 z"
       id="path3932"
       inkscape:connector-curvature="0" />
    <path
       inkscape:connector-curvature="0"
       id="path3934"
       d="m 69.03125,984.2813 c -4.432,0 -8,3.568 -8,8 l 0,13 c 0,4.432 3.568,8 8,8 l 13,0 c 4.432,0 8,-3.568 8,-8 l 0,-13 c 0,-4.432 -3.568,-8 -8,-8 l -13,0 z m 3,3 7,0 c 4.432,0 8,3.568 8,8 l 0,7 c 0,4.432 -3.568,8 -8,8 l -7,0 c -4.432,0 -8,-3.568 -8,-8 l 0,-7 c 0,-4.432 3.568,-8 8,-8 z"
       style="fill:#a78e11;fill-opacity:1;fill-rule:evenodd;stroke:#444411;stroke-width:1;stroke-linecap:butt;stroke-linejoin:miter;stroke-miterlimit:4;stroke-opacity:1;stroke-dasharray:none" />
    <g
       id="g3903">
      <path
         inkscape:connector-curvature="0"
         id="path3924"
         d="m 9.03125,1014.2813 c -4.432,0 -8,3.568 -8,8 l 0,13 c 0,4.432 3.568,8 8,8 l 13,0 c 4.432,0 8,-3.568 8,-8 l 0,-13 c 0,-4.432 -3.568,-8 -8,-8 l -13,0 z m 3,3 7,0 c 4.431999,0 8,3.568 8,8 l 0,7 c 0,4.432 -3.568001,8 -8,8 l -7,0 c -4.431999,0 -8,-3.568 -8,-8 l 0,-7 c 0,-4.432 3.568001,-8 8,-8 z"
         style="fill:url(#linearGradient4102);fill-opacity:1;fill-rule:evenodd;stroke:#444411;stroke-width:1;stroke-linecap:butt;stroke-linejoin:miter;stroke-miterlimit:4;stroke-opacity:1;stroke-dasharray:none" />
      <path
         style="fill:url(#linearGradient4104);fill-opacity:1;stroke:#000000;stroke-width:1;stroke-linejoin:round;stroke-miterlimit:4;stroke-opacity:1;display:inline"
         d="m 10.53125,1036.7813 -3,-3 5,-5 -5,-5 3,-3 5,5 5,-5 3,3 -5,5 5,5 -3,3 -5,-5 z"
         id="path3936"
         inkscape:connector-curvature="0"
         sodipodi:nodetypes="ccccccccccccc" />
    </g>
    <g
       id="g3048"
       transform="translate(-20,10)">
      <path
         style="fill:url(#linearGradient3946);fill-opacity:1;fill-rule:evenodd;stroke:#444411;stroke-width:1;stroke-linecap:butt;stroke-linejoin:miter;stroke-miterlimit:4;stroke-opacity:1;stroke-dasharray:none"
         d="m 59.03125,1004.2813 c -4.432,0 -8,3.568 -8,8 l 0,13 c 0,4.432 3.568,8 8,8 l 13,0 c 4.432,0 8,-3.568 8,-8 l 0,-13 c 0,-4.432 -3.568,-8 -8,-8 l -13,0 z m 3,3 7,0 c 4.431999,0 8,3.568 8,8 l 0,7 c 0,4.432 -3.568001,8 -8,8 l -7,0 c -4.431999,0 -8,-3.568 -8,-8 l 0,-7 c 0,-4.432 3.568001,-8 8,-8 z"
         id="path3926"
         inkscape:connector-curvature="0" />
      <path
         sodipodi:nodetypes="ccccccccccccc"
         inkscape:connector-curvature="0"
         id="path3938"
         d="m 60.53125,1026.7813 -3,-3 5,-5 -5,-5 3,-3 5,5 5,-5 3,3 -5,5 5,5 -3,3 -5,-5 z"
         style="fill:url(#linearGradient3954);fill-opacity:1;stroke:#000000;stroke-width:1;stroke-linejoin:round;stroke-miterlimit:4;stroke-opacity:1;display:inline" />
    </g>
    <path
       sodipodi:nodetypes="ccccccccccccc"
       inkscape:connector-curvature="0"
       id="path3940"
       d="m 71.78125,1034.7813 -2.25,-2.25 3.75,-3.75 -3.75,-3.75 2.25,-2.25 3.75,3.75 3.75,-3.75 2.25,2.25 -3.75,3.75 3.75,3.75 -2.25,2.25 -3.75,-3.75 z"
       style="fill:url(#linearGradient3164);fill-opacity:1;stroke:#000000;stroke-width:1;stroke-linejoin:round;stroke-miterlimit:4;stroke-opacity:1;display:inline" />
    <g
       style="display:none"
       transform="matrix(0.16003237,0,0,0.43204523,10.953177,422.64149)"
       id="g3833"
       inkscape:label="Inactive">
      <rect
         ry="18.516581"
         rx="49.989887"
         y="988.28125"
         x="1.0306129"
         height="55"
         width="169"
         id="rect3835"
         style="fill:url(#linearGradient3843-3);fill-opacity:1;fill-rule:evenodd;stroke:#2b2b2b;stroke-width:3.80304503;stroke-linecap:butt;stroke-linejoin:miter;stroke-miterlimit:4;stroke-opacity:1;stroke-dasharray:none" />
    </g>
    <g
       style="display:none"
       transform="matrix(0.16003237,0,0,0.43204523,10.953177,422.64149)"
       id="g3829"
       inkscape:label="Pressed">
      <rect
         ry="18.516581"
         rx="49.989887"
         y="988.28125"
         x="1.0306129"
         height="55"
         width="169"
         id="rect3831"
         style="fill:#aa8822;fill-opacity:1;fill-rule:evenodd;stroke:#444411;stroke-width:3.80304503;stroke-linecap:butt;stroke-linejoin:miter;stroke-miterlimit:4;stroke-opacity:1;stroke-dasharray:none" />
    </g>
    <g
       style="display:none"
       transform="matrix(0.16003237,0,0,0.43204523,10.953177,422.64149)"
       id="g3823"
       inkscape:label="Hover">
      <rect
         ry="18.516581"
         rx="49.989887"
         y="988.28125"
         x="1.0306129"
         height="55"
         width="169"
         id="rect3825"
         style="fill:url(#linearGradient3827-0);fill-opacity:1;fill-rule:evenodd;stroke:#444411;stroke-width:3.80304503;stroke-linecap:butt;stroke-linejoin:miter;stroke-miterlimit:4;stroke-opacity:1;stroke-dasharray:none" />
    </g>
    <rect
       ry="7.9999995"
       rx="8"
       y="894.28131"
       x="1.03125"
       height="29"
       width="29"
       id="rect2985"
       style="fill:url(#linearGradient4055);fill-opacity:1;fill-rule:evenodd;stroke:#444411;stroke-width:0.99999994;stroke-linecap:butt;stroke-linejoin:miter;stroke-miterlimit:4;stroke-opacity:1;stroke-dasharray:none" />
    <rect
       style="fill:url(#linearGradient4037);fill-opacity:1;fill-rule:evenodd;stroke:#444411;stroke-width:0.99999994;stroke-linecap:butt;stroke-linejoin:miter;stroke-miterlimit:4;stroke-opacity:1;stroke-dasharray:none"
       id="rect4035"
       width="29"
       height="29"
       x="31.03125"
       y="894.28131"
       rx="8"
       ry="7.9999995" />
    <rect
       ry="7.9999995"
       rx="8"
       y="894.28131"
       x="61.03125"
       height="29"
       width="29"
       id="rect4039"
       style="fill:#b8a33c;fill-opacity:1;fill-rule:evenodd;stroke:#444411;stroke-width:0.99999994;stroke-linecap:butt;stroke-linejoin:miter;stroke-miterlimit:4;stroke-opacity:1;stroke-dasharray:none" />
    <path
       style="fill:url(#linearGradient3221);fill-opacity:1;fill-rule:evenodd;stroke:#444411;stroke-width:0.99999994;stroke-linecap:butt;stroke-linejoin:miter;stroke-miterlimit:4;stroke-opacity:1;stroke-dasharray:none"
       d="m 0.5,30.5 0,8 0,6.3125 0,6.6875 c 0,4.432 3.568,8 8,8 l 13,0 c 4.432,0 8,-3.568 8,-8 l 0,-6.6875 0,-6.3125 0,-8 -8,0 -13,0 -8,0 z"
       transform="translate(0.53125,923.78131)"
       id="rect4045"
       inkscape:export-filename="G:\code\diabeatis\flash\src\assets\rect4045.png"
       inkscape:export-xdpi="90"
       inkscape:export-ydpi="90"
       inkscape:connector-curvature="0" />
    <rect
       style="fill:url(#linearGradient4156);fill-opacity:1;fill-rule:evenodd;stroke:#444411;stroke-width:0.99999994;stroke-linecap:butt;stroke-linejoin:miter;stroke-miterlimit:4;stroke-opacity:1;stroke-dasharray:none"
       id="rect4150"
       width="29"
       height="29"
       x="1.03125"
       y="924.28131"
       rx="8"
       ry="7.9999995" />
    <rect
       ry="7.9999995"
       rx="8"
       y="924.28131"
       x="31.03125"
       height="29"
       width="29"
       id="rect4152"
       style="fill:url(#linearGradient4158);fill-opacity:1;fill-rule:evenodd;stroke:#444411;stroke-width:0.99999994;stroke-linecap:butt;stroke-linejoin:miter;stroke-miterlimit:4;stroke-opacity:1;stroke-dasharray:none" />
    <rect
       style="fill:#13b915;fill-opacity:1;fill-rule:evenodd;stroke:#444411;stroke-width:0.99999994;stroke-linecap:butt;stroke-linejoin:miter;stroke-miterlimit:4;stroke-opacity:1;stroke-dasharray:none"
       id="rect4154"
       width="29"
       height="29"
       x="61.03125"
       y="924.28131"
       rx="8"
       ry="7.9999995" />
    <rect
       ry="7.9999995"
       rx="8"
       y="954.28131"
       x="61.03125"
       height="29"
       width="29"
       id="rect3079"
       style="fill:url(#linearGradient3857);fill-opacity:1;fill-rule:evenodd;stroke:#444411;stroke-width:0.99999994;stroke-linecap:butt;stroke-linejoin:miter;stroke-miterlimit:4;stroke-opacity:1;stroke-dasharray:none"
       inkscape:export-filename="G:\code\diabeatis\flash\src\assets\rect3079.png"
       inkscape:export-xdpi="90"
       inkscape:export-ydpi="90" />
    <rect
       style="fill:url(#linearGradient3087);fill-opacity:1;fill-rule:evenodd;stroke:#444411;stroke-width:0.99999994;stroke-linecap:butt;stroke-linejoin:miter;stroke-miterlimit:4;stroke-opacity:1;stroke-dasharray:none"
       id="rect3085"
       width="29"
       height="29"
       x="91.03125"
       y="894.28131"
       rx="8"
       ry="7.9999995" />
    <g
       id="g3874">
      <path
         inkscape:connector-curvature="0"
         id="rect4047"
         transform="translate(0.53125,923.78131)"
         d="m 38.5,30.5 c -4.432,0 -8,3.568 -8,8 l 0,5.25 0,7.75 0,8 8,0 13,0 8,0 0,-8 0,-7.75 0,-5.25 c 0,-4.432 -3.568,-8 -8,-8 l -13,0 z"
         style="fill:url(#linearGradient3218);fill-opacity:1;fill-rule:evenodd;stroke:#444511;stroke-width:0.99999994000000003;stroke-linecap:butt;stroke-linejoin:miter;stroke-miterlimit:4;stroke-opacity:1" />
      <rect
         y="982.78131"
         x="31.53125"
         height="1"
         width="28"
         id="rect3872"
         style="fill:#b5a15a;fill-opacity:1;stroke:none" />
    </g>
  </g>
</svg>
